\relax 
\catcode `"\active 
\select@language{portuges}
\@writefile{toc}{\select@language{portuges}}
\@writefile{lof}{\select@language{portuges}}
\@writefile{lot}{\select@language{portuges}}
\@writefile{toc}{\contentsline {section}{\numberline {1}Introdu\IeC {\c c}\IeC {\~a}o}{1}}
\@writefile{toc}{\contentsline {section}{\numberline {2}T\IeC {\'e}cnicas de Anti-Serrilhado(Anti-Aliasing)}{1}}
\@writefile{toc}{\contentsline {section}{\numberline {3}Modelos de Tonaliza\IeC {\c c}\IeC {\~a}o ("Shading")}{1}}
\@writefile{toc}{\contentsline {section}{\numberline {4}O Processo de "Rendering"}{2}}
\@writefile{toc}{\contentsline {section}{\numberline {5}Imagens Geradas por computador (Computer Graphic Imagery)}{4}}
\newlabel{cgi}{{5}{4}}
\@writefile{toc}{\contentsline {subsection}{\numberline {5.1}Hist\IeC {\'o}ria CGI}{5}}
\bibstyle{sbc}
\bibdata{biblio/bibliografia}
\@writefile{toc}{\contentsline {subsection}{\numberline {5.2}Captura de Imagens em CGI}{6}}
\@writefile{toc}{\contentsline {subsection}{\numberline {5.3}Processo de cria\IeC {\c c}\IeC {\~a}o de Imagem}{6}}
